module github.com/conglt10/web-golang

go 1.13

require (
	github.com/asaskevich/govalidator v0.0.0-20200108200545-475eaeb16496
	github.com/dgrijalva/jwt-go v3.2.0+incompatible
	github.com/gorilla/handlers v1.5.1 // indirect
	github.com/joho/godotenv v1.3.0
	github.com/julienschmidt/httprouter v1.3.0
	github.com/satori/go.uuid v1.2.0
	github.com/stretchr/testify v1.4.0 // indirect
	go.mongodb.org/mongo-driver v1.3.1
	golang.org/x/crypto v0.0.0-20190530122614-20be4c3c3ed5
	gopkg.in/mgo.v2 v2.0.0-20190816093944-a6b53ec6cb22
	gopkg.in/yaml.v2 v2.2.4 // indirect
)
